{
  "services": [
    {
      "title": "diseño de sonrisa",
      "description": "Lorem ipsum dolor sit amet, consectetur adipiscing elit. Sed porttitor ante at sapien ultricies accumsan.",
      "color": "bg-grey",
      "img": "img:images/005-teeth-1.png"
    },
    {
      "title": "mini diseño",
      "description": "Lorem ipsum dolor sit amet, consectetur adipiscing elit. Sed porttitor ante at sapien ultricies accumsan.",
      "color": "bg-white",
      "img": "img:images/003-teeth.png"
    },
    {
      "title": "fase higíenica",
      "description": "Lorem ipsum dolor sit amet, consectetur adipiscing elit. Sed porttitor ante at sapien ultricies accumsan.",
      "color": "bg-grey",
      "img": "img:images/022-floss.png"
    },
    {
      "title": "cirugías",
      "description": "Lorem ipsum dolor sit amet, consectetur adipiscing elit. Sed porttitor ante at sapien ultricies accumsan.",
      "color": "bg-white",
      "img": "img:images/035-forceps.png"
    },
    {
      "title": "ortodoncia",
      "description": "Lorem ipsum dolor sit amet, consectetur adipiscing elit. Sed porttitor ante at sapien ultricies accumsan.",
      "color": "bg-white",
      "img": "img:images/015-braces.png"
    },
    {
      "title": "lentes cerámicos",
      "description": "Lorem ipsum dolor sit amet, consectetur adipiscing elit. Sed porttitor ante at sapien ultricies accumsan.",
      "color": "bg-grey",
      "img": "img:images/008-dental-veneer.png"
    },
    {
      "title": "aclaramiento",
      "description": "Lorem ipsum dolor sit amet, consectetur adipiscing elit. Sed porttitor ante at sapien ultricies accumsan.",
      "color": "bg-white",
      "img": "img:images/040-tooth-7.png"
    },
    {
      "title": "limpieza",
      "description": "Lorem ipsum dolor sit amet, consectetur adipiscing elit. Sed porttitor ante at sapien ultricies accumsan.",
      "color": "bg-grey",
      "img": "img:images/024-toothbrush@2x.png"
    }
  ]
}